{"failedCount":1,"prefixedPath":"classpath:examples\/users\/JsonSchema.feature","packageQualifiedName":"examples.users.JsonSchema","loopIndex":-1,"relativePath":"examples\/users\/JsonSchema.feature","scenarioResults":[{"sectionIndex":0,"stepResults":[{"result":{"nanos":3490152,"millis":3.490152,"status":"passed"},"step":{"line":4,"prefix":"Given","index":0,"text":"url 'https:\/\/reqres.in\/api\/2'"},"stepLog":"16:16:04.986 karate.env system property was: null \n"},{"result":{"nanos":814012314,"millis":814.012314,"status":"passed"},"step":{"line":5,"prefix":"When","index":1,"text":"method Get"},"stepLog":"16:16:05.328 request:\n1 > GET https:\/\/reqres.in\/api\/2\n1 > Host: reqres.in\n1 > Connection: Keep-Alive\n1 > User-Agent: Apache-HttpClient\/4.5.13 (Java\/11.0.11)\n1 > Accept-Encoding: gzip,deflate\n\n\n16:16:05.869 response time in milliseconds: 537\n1 < 200\n1 < Date: Fri, 30 Jul 2021 10:46:05 GMT\n1 < Content-Type: application\/json; charset=utf-8\n1 < Transfer-Encoding: chunked\n1 < Connection: keep-alive\n1 < x-powered-by: Express\n1 < access-control-allow-origin: *\n1 < etag: W\/\"2c1-N6Rqerxquq2kgQhL51EiSg4x0R8\"\n1 < via: 1.1 vegur\n1 < Cache-Control: max-age=14400\n1 < CF-Cache-Status: HIT\n1 < Age: 513\n1 < Expect-CT: max-age=604800, report-uri=\"https:\/\/report-uri.cloudflare.com\/cdn-cgi\/beacon\/expect-ct\"\n1 < Report-To: {\"endpoints\":[{\"url\":\"https:\\\/\\\/a.nel.cloudflare.com\\\/report\\\/v3?s=IrU6hUmNKHxcP71tIaQf91cj%2BpeIDfAaz%2FNxENBnuUhynSge2q%2F7SZRCGic1krCgRU5ke6OaFNbqD08%2FCKHrx9DzIfN9U%2Bwjw2n9rD4R%2F%2BQQPWXWv2b%2FM3xU%2BV8%3D\"}],\"group\":\"cf-nel\",\"max_age\":604800}\n1 < NEL: {\"report_to\":\"cf-nel\",\"max_age\":604800}\n1 < Vary: Accept-Encoding\n1 < Server: cloudflare\n1 < CF-RAY: 676e004eadc04af9-HYD\n1 < alt-svc: h3-27=\":443\"; ma=86400, h3-28=\":443\"; ma=86400, h3-29=\":443\"; ma=86400, h3=\":443\"; ma=86400\n{\"per_page\":6,\"total\":12,\"data\":[{\"color\":\"#98B2D1\",\"year\":2000,\"name\":\"cerulean\",\"id\":1,\"pantone_value\":\"15-4020\"},{\"color\":\"#C74375\",\"year\":2001,\"name\":\"fuchsia rose\",\"id\":2,\"pantone_value\":\"17-2031\"},{\"color\":\"#BF1932\",\"year\":2002,\"name\":\"true red\",\"id\":3,\"pantone_value\":\"19-1664\"},{\"color\":\"#7BC4C4\",\"year\":2003,\"name\":\"aqua sky\",\"id\":4,\"pantone_value\":\"14-4811\"},{\"color\":\"#E2583E\",\"year\":2004,\"name\":\"tigerlily\",\"id\":5,\"pantone_value\":\"17-1456\"},{\"color\":\"#53B0AE\",\"year\":2005,\"name\":\"blue turquoise\",\"id\":6,\"pantone_value\":\"15-5217\"}],\"page\":1,\"total_pages\":2,\"support\":{\"text\":\"To keep ReqRes free, contributions towards server costs are appreciated!\",\"url\":\"https:\\\/\\\/reqres.in\\\/#support-heading\"}}\n"},{"result":{"nanos":29930773,"millis":29.930773,"status":"passed"},"step":{"line":6,"prefix":"Then","index":2,"text":"match response == '#object'"}},{"result":{"nanos":661963,"millis":0.661963,"status":"passed"},"step":{"endLine":22,"line":7,"prefix":"*","docString":"{\n    \"data\":{\n        \"id\":'#number',\n        \"email\":\"#string\",\n        \"first_name\":\"#string\",\n        \"last_name\":\"#string\",\n        \"avatar\" : \"#string\"\n    },\n    \"support\" :{\n        \"url\" : \"#string\",\n        \"text\" : \"#string\"\n    }\n}","index":3,"text":"def jsonSchemaExpected ="}},{"result":{"nanos":1343429,"errorMessage":"match failed: EQUALS\n  $ | not equal | actual has 4 more key(s) than expected - {\"per_page\":6,\"total\":12,\"page\":1,\"total_pages\":2} (MAP:MAP)\n  {\"per_page\":6,\"total\":12,\"data\":[{\"color\":\"#98B2D1\",\"year\":2000,\"name\":\"cerulean\",\"id\":1,\"pantone_value\":\"15-4020\"},{\"color\":\"#C74375\",\"year\":2001,\"name\":\"fuchsia rose\",\"id\":2,\"pantone_value\":\"17-2031\"},{\"color\":\"#BF1932\",\"year\":2002,\"name\":\"true red\",\"id\":3,\"pantone_value\":\"19-1664\"},{\"color\":\"#7BC4C4\",\"year\":2003,\"name\":\"aqua sky\",\"id\":4,\"pantone_value\":\"14-4811\"},{\"color\":\"#E2583E\",\"year\":2004,\"name\":\"tigerlily\",\"id\":5,\"pantone_value\":\"17-1456\"},{\"color\":\"#53B0AE\",\"year\":2005,\"name\":\"blue turquoise\",\"id\":6,\"pantone_value\":\"15-5217\"}],\"page\":1,\"total_pages\":2,\"support\":{\"text\":\"To keep ReqRes free, contributions towards server costs are appreciated!\",\"url\":\"https:\/\/reqres.in\/#support-heading\"}}\n  {\"data\":{\"id\":\"#number\",\"email\":\"#string\",\"first_name\":\"#string\",\"last_name\":\"#string\",\"avatar\":\"#string\"},\"support\":{\"url\":\"#string\",\"text\":\"#string\"}}\n\n\nclasspath:examples\/users\/JsonSchema.feature:23","millis":1.343429,"status":"failed"},"step":{"line":23,"prefix":"*","index":4,"text":"match response ==jsonSchemaExpected"},"stepLog":"16:16:05.910 classpath:examples\/users\/JsonSchema.feature:23\n* match response ==jsonSchemaExpected\nmatch failed: EQUALS\n  $ | not equal | actual has 4 more key(s) than expected - {\"per_page\":6,\"total\":12,\"page\":1,\"total_pages\":2} (MAP:MAP)\n  {\"per_page\":6,\"total\":12,\"data\":[{\"color\":\"#98B2D1\",\"year\":2000,\"name\":\"cerulean\",\"id\":1,\"pantone_value\":\"15-4020\"},{\"color\":\"#C74375\",\"year\":2001,\"name\":\"fuchsia rose\",\"id\":2,\"pantone_value\":\"17-2031\"},{\"color\":\"#BF1932\",\"year\":2002,\"name\":\"true red\",\"id\":3,\"pantone_value\":\"19-1664\"},{\"color\":\"#7BC4C4\",\"year\":2003,\"name\":\"aqua sky\",\"id\":4,\"pantone_value\":\"14-4811\"},{\"color\":\"#E2583E\",\"year\":2004,\"name\":\"tigerlily\",\"id\":5,\"pantone_value\":\"17-1456\"},{\"color\":\"#53B0AE\",\"year\":2005,\"name\":\"blue turquoise\",\"id\":6,\"pantone_value\":\"15-5217\"}],\"page\":1,\"total_pages\":2,\"support\":{\"text\":\"To keep ReqRes free, contributions towards server costs are appreciated!\",\"url\":\"https:\/\/reqres.in\/#support-heading\"}}\n  {\"data\":{\"id\":\"#number\",\"email\":\"#string\",\"first_name\":\"#string\",\"last_name\":\"#string\",\"avatar\":\"#string\"},\"support\":{\"url\":\"#string\",\"text\":\"#string\"}}\n\n\nclasspath:examples\/users\/JsonSchema.feature:23\n"}],"line":3,"description":"","durationMillis":849.438631,"failed":true,"error":"match failed: EQUALS\n  $ | not equal | actual has 4 more key(s) than expected - {\"per_page\":6,\"total\":12,\"page\":1,\"total_pages\":2} (MAP:MAP)\n  {\"per_page\":6,\"total\":12,\"data\":[{\"color\":\"#98B2D1\",\"year\":2000,\"name\":\"cerulean\",\"id\":1,\"pantone_value\":\"15-4020\"},{\"color\":\"#C74375\",\"year\":2001,\"name\":\"fuchsia rose\",\"id\":2,\"pantone_value\":\"17-2031\"},{\"color\":\"#BF1932\",\"year\":2002,\"name\":\"true red\",\"id\":3,\"pantone_value\":\"19-1664\"},{\"color\":\"#7BC4C4\",\"year\":2003,\"name\":\"aqua sky\",\"id\":4,\"pantone_value\":\"14-4811\"},{\"color\":\"#E2583E\",\"year\":2004,\"name\":\"tigerlily\",\"id\":5,\"pantone_value\":\"17-1456\"},{\"color\":\"#53B0AE\",\"year\":2005,\"name\":\"blue turquoise\",\"id\":6,\"pantone_value\":\"15-5217\"}],\"page\":1,\"total_pages\":2,\"support\":{\"text\":\"To keep ReqRes free, contributions towards server costs are appreciated!\",\"url\":\"https:\/\/reqres.in\/#support-heading\"}}\n  {\"data\":{\"id\":\"#number\",\"email\":\"#string\",\"first_name\":\"#string\",\"last_name\":\"#string\",\"avatar\":\"#string\"},\"support\":{\"url\":\"#string\",\"text\":\"#string\"}}\n\n\nclasspath:examples\/users\/JsonSchema.feature:23","executorName":"pool-1-thread-5","name":"\"JSON Schema\"","startTime":1627641964921,"refId":"[1:3]","endTime":1627641965911,"exampleIndex":-1}],"callDepth":0,"name":"Json Schema","description":"","resultDate":"2021-07-30 04:16:09 pm","durationMillis":849.438631,"passedCount":0}