{"failedCount":1,"prefixedPath":"classpath:examples\/users\/JsonSchema.feature","packageQualifiedName":"examples.users.JsonSchema","loopIndex":-1,"relativePath":"examples\/users\/JsonSchema.feature","scenarioResults":[{"sectionIndex":0,"stepResults":[{"result":{"nanos":927045,"millis":0.927045,"status":"passed"},"step":{"line":4,"prefix":"Given","index":0,"text":"url 'https:\/\/reqres.in\/api\/2'"},"stepLog":"16:26:25.998 karate.env system property was: null \n"},{"result":{"nanos":956949843,"millis":956.949843,"status":"passed"},"step":{"line":5,"prefix":"When","index":1,"text":"method Get"},"stepLog":"16:26:26.330 request:\n1 > GET https:\/\/reqres.in\/api\/2\n1 > Host: reqres.in\n1 > Connection: Keep-Alive\n1 > User-Agent: Apache-HttpClient\/4.5.13 (Java\/11.0.11)\n1 > Accept-Encoding: gzip,deflate\n\n\n16:26:27.020 response time in milliseconds: 688\n1 < 200\n1 < Date: Fri, 30 Jul 2021 10:56:27 GMT\n1 < Content-Type: application\/json; charset=utf-8\n1 < Transfer-Encoding: chunked\n1 < Connection: keep-alive\n1 < x-powered-by: Express\n1 < access-control-allow-origin: *\n1 < etag: W\/\"2c1-N6Rqerxquq2kgQhL51EiSg4x0R8\"\n1 < via: 1.1 vegur\n1 < Cache-Control: max-age=14400\n1 < CF-Cache-Status: HIT\n1 < Age: 1135\n1 < Expect-CT: max-age=604800, report-uri=\"https:\/\/report-uri.cloudflare.com\/cdn-cgi\/beacon\/expect-ct\"\n1 < Report-To: {\"endpoints\":[{\"url\":\"https:\\\/\\\/a.nel.cloudflare.com\\\/report\\\/v3?s=eyOZLDxG5yfwH6eozRe3Rdk1qyaBv0htwhOzRPzucwYkSU66DWL8pFqq1LJO7BNhAuNsxfBVevUjeIeIJuiqb0uV58WKzMa50yChAlA4VtJ6t9g9sgdxOrCR2AA%3D\"}],\"group\":\"cf-nel\",\"max_age\":604800}\n1 < NEL: {\"report_to\":\"cf-nel\",\"max_age\":604800}\n1 < Vary: Accept-Encoding\n1 < Server: cloudflare\n1 < CF-RAY: 676e0f792b494b1d-HYD\n1 < alt-svc: h3-27=\":443\"; ma=86400, h3-28=\":443\"; ma=86400, h3-29=\":443\"; ma=86400, h3=\":443\"; ma=86400\n{\"per_page\":6,\"total\":12,\"data\":[{\"color\":\"#98B2D1\",\"year\":2000,\"name\":\"cerulean\",\"id\":1,\"pantone_value\":\"15-4020\"},{\"color\":\"#C74375\",\"year\":2001,\"name\":\"fuchsia rose\",\"id\":2,\"pantone_value\":\"17-2031\"},{\"color\":\"#BF1932\",\"year\":2002,\"name\":\"true red\",\"id\":3,\"pantone_value\":\"19-1664\"},{\"color\":\"#7BC4C4\",\"year\":2003,\"name\":\"aqua sky\",\"id\":4,\"pantone_value\":\"14-4811\"},{\"color\":\"#E2583E\",\"year\":2004,\"name\":\"tigerlily\",\"id\":5,\"pantone_value\":\"17-1456\"},{\"color\":\"#53B0AE\",\"year\":2005,\"name\":\"blue turquoise\",\"id\":6,\"pantone_value\":\"15-5217\"}],\"page\":1,\"total_pages\":2,\"support\":{\"text\":\"To keep ReqRes free, contributions towards server costs are appreciated!\",\"url\":\"https:\\\/\\\/reqres.in\\\/#support-heading\"}}\n"},{"result":{"nanos":9176506,"millis":9.176506,"status":"passed"},"step":{"line":6,"prefix":"Then","index":2,"text":"match response == '#object'"}},{"result":{"nanos":1207421,"millis":1.207421,"status":"passed"},"step":{"endLine":217,"line":7,"prefix":"*","docString":"{\n  \"$schema\": \"http:\/\/json-schema.org\/draft-04\/schema#\",\n  \"type\": \"object\",\n  \"properties\": {\n    \"per_page\": {\n      \"type\": \"integer\"\n    },\n    \"total\": {\n      \"type\": \"integer\"\n    },\n    \"data\": {\n      \"type\": \"array\",\n      \"items\": [\n{\n  \"type\": \"object\",\n  \"properties\": {\n    \"color\": {\n      \"type\": \"string\"\n    },\n    \"year\": {\n      \"type\": \"integer\"\n    },\n    \"name\": {\n      \"type\": \"string\"\n    },\n    \"id\": {\n      \"type\": \"integer\"\n    },\n    \"pantone_value\": {\n      \"type\": \"string\"\n    }\n  },\n  \"required\": [\n    \"color\",\n    \"year\",\n    \"name\",\n    \"id\",\n    \"pantone_value\"\n  ]\n},\n{\n  \"type\": \"object\",\n  \"properties\": {\n    \"color\": {\n      \"type\": \"string\"\n    },\n    \"year\": {\n      \"type\": \"integer\"\n    },\n    \"name\": {\n      \"type\": \"string\"\n    },\n    \"id\": {\n      \"type\": \"integer\"\n    },\n    \"pantone_value\": {\n      \"type\": \"string\"\n    }\n  },\n  \"required\": [\n    \"color\",\n    \"year\",\n    \"name\",\n    \"id\",\n    \"pantone_value\"\n  ]\n},\n{\n  \"type\": \"object\",\n  \"properties\": {\n    \"color\": {\n      \"type\": \"string\"\n    },\n    \"year\": {\n      \"type\": \"integer\"\n    },\n    \"name\": {\n      \"type\": \"string\"\n    },\n    \"id\": {\n      \"type\": \"integer\"\n    },\n    \"pantone_value\": {\n      \"type\": \"string\"\n    }\n  },\n  \"required\": [\n    \"color\",\n    \"year\",\n    \"name\",\n    \"id\",\n    \"pantone_value\"\n  ]\n},\n{\n  \"type\": \"object\",\n  \"properties\": {\n    \"color\": {\n      \"type\": \"string\"\n    },\n    \"year\": {\n      \"type\": \"integer\"\n    },\n    \"name\": {\n      \"type\": \"string\"\n    },\n    \"id\": {\n      \"type\": \"integer\"\n    },\n    \"pantone_value\": {\n      \"type\": \"string\"\n    }\n  },\n  \"required\": [\n    \"color\",\n    \"year\",\n    \"name\",\n    \"id\",\n    \"pantone_value\"\n  ]\n},\n{\n  \"type\": \"object\",\n  \"properties\": {\n    \"color\": {\n      \"type\": \"string\"\n    },\n    \"year\": {\n      \"type\": \"integer\"\n    },\n    \"name\": {\n      \"type\": \"string\"\n    },\n    \"id\": {\n      \"type\": \"integer\"\n    },\n    \"pantone_value\": {\n      \"type\": \"string\"\n    }\n  },\n  \"required\": [\n    \"color\",\n    \"year\",\n    \"name\",\n    \"id\",\n    \"pantone_value\"\n  ]\n},\n{\n  \"type\": \"object\",\n  \"properties\": {\n    \"color\": {\n      \"type\": \"string\"\n    },\n    \"year\": {\n      \"type\": \"integer\"\n    },\n    \"name\": {\n      \"type\": \"string\"\n    },\n    \"id\": {\n      \"type\": \"integer\"\n    },\n    \"pantone_value\": {\n      \"type\": \"string\"\n    }\n  },\n  \"required\": [\n    \"color\",\n    \"year\",\n    \"name\",\n    \"id\",\n    \"pantone_value\"\n  ]\n}\n      ]\n    },\n    \"page\": {\n      \"type\": \"integer\"\n    },\n    \"total_pages\": {\n      \"type\": \"integer\"\n    },\n    \"support\": {\n      \"type\": \"object\",\n      \"properties\": {\n\"text\": {\n  \"type\": \"string\"\n},\n\"url\": {\n  \"type\": \"string\"\n}\n      },\n      \"required\": [\n\"text\",\n\"url\"\n      ]\n    }\n  },\n  \"required\": [\n    \"per_page\",\n    \"total\",\n    \"data\",\n    \"page\",\n    \"total_pages\",\n    \"support\"\n  ]\n}","index":3,"text":"def jsonSchemaExpected ="}},{"result":{"nanos":11910948,"errorMessage":"match failed: EQUALS\n  $ | not equal | actual has 2 more key(s) than expected - {\"per_page\":6,\"total\":12,\"data\":[{\"color\":\"#98B2D1\",\"year\":2000,\"name\":\"cerulean\",\"id\":1,\"pantone_value\":\"15-4020\"},{\"color\":\"#C74375\",\"year\":2001,\"name\":\"fuchsia rose\",\"id\":2,\"pantone_value\":\"17-2031\"},{\"color\":\"#BF1932\",\"year\":2002,\"name\":\"true red\",\"id\":3,\"pantone_value\":\"19-1664\"},{\"color\":\"#7BC4C4\",\"year\":2003,\"name\":\"aqua sky\",\"id\":4,\"pantone_value\":\"14-4811\"},{\"color\":\"#E2583E\",\"year\":2004,\"name\":\"tigerlily\",\"id\":5,\"pantone_value\":\"17-1456\"},{\"color\":\"#53B0AE\",\"year\":2005,\"name\":\"blue turquoise\",\"id\":6,\"pantone_value\":\"15-5217\"}],\"page\":1,\"total_pages\":2,\"support\":{\"text\":\"To keep ReqRes free, contributions towards server costs are appreciated!\",\"url\":\"https:\\\/\\\/reqres.in\\\/#support-heading\"}} (MAP:MAP)\n  {\"per_page\":6,\"total\":12,\"data\":[{\"color\":\"#98B2D1\",\"year\":2000,\"name\":\"cerulean\",\"id\":1,\"pantone_value\":\"15-4020\"},{\"color\":\"#C74375\",\"year\":2001,\"name\":\"fuchsia rose\",\"id\":2,\"pantone_value\":\"17-2031\"},{\"color\":\"#BF1932\",\"year\":2002,\"name\":\"true red\",\"id\":3,\"pantone_value\":\"19-1664\"},{\"color\":\"#7BC4C4\",\"year\":2003,\"name\":\"aqua sky\",\"id\":4,\"pantone_value\":\"14-4811\"},{\"color\":\"#E2583E\",\"year\":2004,\"name\":\"tigerlily\",\"id\":5,\"pantone_value\":\"17-1456\"},{\"color\":\"#53B0AE\",\"year\":2005,\"name\":\"blue turquoise\",\"id\":6,\"pantone_value\":\"15-5217\"}],\"page\":1,\"total_pages\":2,\"support\":{\"text\":\"To keep ReqRes free, contributions towards server costs are appreciated!\",\"url\":\"https:\/\/reqres.in\/#support-heading\"}}\n  {\"$schema\":\"http:\/\/json-schema.org\/draft-04\/schema#\",\"type\":\"object\",\"properties\":{\"per_page\":{\"type\":\"integer\"},\"total\":{\"type\":\"integer\"},\"data\":{\"type\":\"array\",\"items\":[{\"type\":\"object\",\"properties\":{\"color\":{\"type\":\"string\"},\"year\":{\"type\":\"integer\"},\"name\":{\"type\":\"string\"},\"id\":{\"type\":\"integer\"},\"pantone_value\":{\"type\":\"string\"}},\"required\":[\"color\",\"year\",\"name\",\"id\",\"pantone_value\"]},{\"type\":\"object\",\"properties\":{\"color\":{\"type\":\"string\"},\"year\":{\"type\":\"integer\"},\"name\":{\"type\":\"string\"},\"id\":{\"type\":\"integer\"},\"pantone_value\":{\"type\":\"string\"}},\"required\":[\"color\",\"year\",\"name\",\"id\",\"pantone_value\"]},{\"type\":\"object\",\"properties\":{\"color\":{\"type\":\"string\"},\"year\":{\"type\":\"integer\"},\"name\":{\"type\":\"string\"},\"id\":{\"type\":\"integer\"},\"pantone_value\":{\"type\":\"string\"}},\"required\":[\"color\",\"year\",\"name\",\"id\",\"pantone_value\"]},{\"type\":\"object\",\"properties\":{\"color\":{\"type\":\"string\"},\"year\":{\"type\":\"integer\"},\"name\":{\"type\":\"string\"},\"id\":{\"type\":\"integer\"},\"pantone_value\":{\"type\":\"string\"}},\"required\":[\"color\",\"year\",\"name\",\"id\",\"pantone_value\"]},{\"type\":\"object\",\"properties\":{\"color\":{\"type\":\"string\"},\"year\":{\"type\":\"integer\"},\"name\":{\"type\":\"string\"},\"id\":{\"type\":\"integer\"},\"pantone_value\":{\"type\":\"string\"}},\"required\":[\"color\",\"year\",\"name\",\"id\",\"pantone_value\"]},{\"type\":\"object\",\"properties\":{\"color\":{\"type\":\"string\"},\"year\":{\"type\":\"integer\"},\"name\":{\"type\":\"string\"},\"id\":{\"type\":\"integer\"},\"pantone_value\":{\"type\":\"string\"}},\"required\":[\"color\",\"year\",\"name\",\"id\",\"pantone_value\"]}]},\"page\":{\"type\":\"integer\"},\"total_pages\":{\"type\":\"integer\"},\"support\":{\"type\":\"object\",\"properties\":{\"text\":{\"type\":\"string\"},\"url\":{\"type\":\"string\"}},\"required\":[\"text\",\"url\"]}},\"required\":[\"per_page\",\"total\",\"data\",\"page\",\"total_pages\",\"support\"]}\n\n\nclasspath:examples\/users\/JsonSchema.feature:218","millis":11.910948,"status":"failed"},"step":{"line":218,"prefix":"*","index":4,"text":"match response ==jsonSchemaExpected"},"stepLog":"16:26:27.046 classpath:examples\/users\/JsonSchema.feature:218\n* match response ==jsonSchemaExpected\nmatch failed: EQUALS\n  $ | not equal | actual has 2 more key(s) than expected - {\"per_page\":6,\"total\":12,\"data\":[{\"color\":\"#98B2D1\",\"year\":2000,\"name\":\"cerulean\",\"id\":1,\"pantone_value\":\"15-4020\"},{\"color\":\"#C74375\",\"year\":2001,\"name\":\"fuchsia rose\",\"id\":2,\"pantone_value\":\"17-2031\"},{\"color\":\"#BF1932\",\"year\":2002,\"name\":\"true red\",\"id\":3,\"pantone_value\":\"19-1664\"},{\"color\":\"#7BC4C4\",\"year\":2003,\"name\":\"aqua sky\",\"id\":4,\"pantone_value\":\"14-4811\"},{\"color\":\"#E2583E\",\"year\":2004,\"name\":\"tigerlily\",\"id\":5,\"pantone_value\":\"17-1456\"},{\"color\":\"#53B0AE\",\"year\":2005,\"name\":\"blue turquoise\",\"id\":6,\"pantone_value\":\"15-5217\"}],\"page\":1,\"total_pages\":2,\"support\":{\"text\":\"To keep ReqRes free, contributions towards server costs are appreciated!\",\"url\":\"https:\\\/\\\/reqres.in\\\/#support-heading\"}} (MAP:MAP)\n  {\"per_page\":6,\"total\":12,\"data\":[{\"color\":\"#98B2D1\",\"year\":2000,\"name\":\"cerulean\",\"id\":1,\"pantone_value\":\"15-4020\"},{\"color\":\"#C74375\",\"year\":2001,\"name\":\"fuchsia rose\",\"id\":2,\"pantone_value\":\"17-2031\"},{\"color\":\"#BF1932\",\"year\":2002,\"name\":\"true red\",\"id\":3,\"pantone_value\":\"19-1664\"},{\"color\":\"#7BC4C4\",\"year\":2003,\"name\":\"aqua sky\",\"id\":4,\"pantone_value\":\"14-4811\"},{\"color\":\"#E2583E\",\"year\":2004,\"name\":\"tigerlily\",\"id\":5,\"pantone_value\":\"17-1456\"},{\"color\":\"#53B0AE\",\"year\":2005,\"name\":\"blue turquoise\",\"id\":6,\"pantone_value\":\"15-5217\"}],\"page\":1,\"total_pages\":2,\"support\":{\"text\":\"To keep ReqRes free, contributions towards server costs are appreciated!\",\"url\":\"https:\/\/reqres.in\/#support-heading\"}}\n  {\"$schema\":\"http:\/\/json-schema.org\/draft-04\/schema#\",\"type\":\"object\",\"properties\":{\"per_page\":{\"type\":\"integer\"},\"total\":{\"type\":\"integer\"},\"data\":{\"type\":\"array\",\"items\":[{\"type\":\"object\",\"properties\":{\"color\":{\"type\":\"string\"},\"year\":{\"type\":\"integer\"},\"name\":{\"type\":\"string\"},\"id\":{\"type\":\"integer\"},\"pantone_value\":{\"type\":\"string\"}},\"required\":[\"color\",\"year\",\"name\",\"id\",\"pantone_value\"]},{\"type\":\"object\",\"properties\":{\"color\":{\"type\":\"string\"},\"year\":{\"type\":\"integer\"},\"name\":{\"type\":\"string\"},\"id\":{\"type\":\"integer\"},\"pantone_value\":{\"type\":\"string\"}},\"required\":[\"color\",\"year\",\"name\",\"id\",\"pantone_value\"]},{\"type\":\"object\",\"properties\":{\"color\":{\"type\":\"string\"},\"year\":{\"type\":\"integer\"},\"name\":{\"type\":\"string\"},\"id\":{\"type\":\"integer\"},\"pantone_value\":{\"type\":\"string\"}},\"required\":[\"color\",\"year\",\"name\",\"id\",\"pantone_value\"]},{\"type\":\"object\",\"properties\":{\"color\":{\"type\":\"string\"},\"year\":{\"type\":\"integer\"},\"name\":{\"type\":\"string\"},\"id\":{\"type\":\"integer\"},\"pantone_value\":{\"type\":\"string\"}},\"required\":[\"color\",\"year\",\"name\",\"id\",\"pantone_value\"]},{\"type\":\"object\",\"properties\":{\"color\":{\"type\":\"string\"},\"year\":{\"type\":\"integer\"},\"name\":{\"type\":\"string\"},\"id\":{\"type\":\"integer\"},\"pantone_value\":{\"type\":\"string\"}},\"required\":[\"color\",\"year\",\"name\",\"id\",\"pantone_value\"]},{\"type\":\"object\",\"properties\":{\"color\":{\"type\":\"string\"},\"year\":{\"type\":\"integer\"},\"name\":{\"type\":\"string\"},\"id\":{\"type\":\"integer\"},\"pantone_value\":{\"type\":\"string\"}},\"required\":[\"color\",\"year\",\"name\",\"id\",\"pantone_value\"]}]},\"page\":{\"type\":\"integer\"},\"total_pages\":{\"type\":\"integer\"},\"support\":{\"type\":\"object\",\"properties\":{\"text\":{\"type\":\"string\"},\"url\":{\"type\":\"string\"}},\"required\":[\"text\",\"url\"]}},\"required\":[\"per_page\",\"total\",\"data\",\"page\",\"total_pages\",\"support\"]}\n\n\nclasspath:examples\/users\/JsonSchema.feature:218\n"}],"line":3,"description":"","durationMillis":980.171763,"failed":true,"error":"match failed: EQUALS\n  $ | not equal | actual has 2 more key(s) than expected - {\"per_page\":6,\"total\":12,\"data\":[{\"color\":\"#98B2D1\",\"year\":2000,\"name\":\"cerulean\",\"id\":1,\"pantone_value\":\"15-4020\"},{\"color\":\"#C74375\",\"year\":2001,\"name\":\"fuchsia rose\",\"id\":2,\"pantone_value\":\"17-2031\"},{\"color\":\"#BF1932\",\"year\":2002,\"name\":\"true red\",\"id\":3,\"pantone_value\":\"19-1664\"},{\"color\":\"#7BC4C4\",\"year\":2003,\"name\":\"aqua sky\",\"id\":4,\"pantone_value\":\"14-4811\"},{\"color\":\"#E2583E\",\"year\":2004,\"name\":\"tigerlily\",\"id\":5,\"pantone_value\":\"17-1456\"},{\"color\":\"#53B0AE\",\"year\":2005,\"name\":\"blue turquoise\",\"id\":6,\"pantone_value\":\"15-5217\"}],\"page\":1,\"total_pages\":2,\"support\":{\"text\":\"To keep ReqRes free, contributions towards server costs are appreciated!\",\"url\":\"https:\\\/\\\/reqres.in\\\/#support-heading\"}} (MAP:MAP)\n  {\"per_page\":6,\"total\":12,\"data\":[{\"color\":\"#98B2D1\",\"year\":2000,\"name\":\"cerulean\",\"id\":1,\"pantone_value\":\"15-4020\"},{\"color\":\"#C74375\",\"year\":2001,\"name\":\"fuchsia rose\",\"id\":2,\"pantone_value\":\"17-2031\"},{\"color\":\"#BF1932\",\"year\":2002,\"name\":\"true red\",\"id\":3,\"pantone_value\":\"19-1664\"},{\"color\":\"#7BC4C4\",\"year\":2003,\"name\":\"aqua sky\",\"id\":4,\"pantone_value\":\"14-4811\"},{\"color\":\"#E2583E\",\"year\":2004,\"name\":\"tigerlily\",\"id\":5,\"pantone_value\":\"17-1456\"},{\"color\":\"#53B0AE\",\"year\":2005,\"name\":\"blue turquoise\",\"id\":6,\"pantone_value\":\"15-5217\"}],\"page\":1,\"total_pages\":2,\"support\":{\"text\":\"To keep ReqRes free, contributions towards server costs are appreciated!\",\"url\":\"https:\/\/reqres.in\/#support-heading\"}}\n  {\"$schema\":\"http:\/\/json-schema.org\/draft-04\/schema#\",\"type\":\"object\",\"properties\":{\"per_page\":{\"type\":\"integer\"},\"total\":{\"type\":\"integer\"},\"data\":{\"type\":\"array\",\"items\":[{\"type\":\"object\",\"properties\":{\"color\":{\"type\":\"string\"},\"year\":{\"type\":\"integer\"},\"name\":{\"type\":\"string\"},\"id\":{\"type\":\"integer\"},\"pantone_value\":{\"type\":\"string\"}},\"required\":[\"color\",\"year\",\"name\",\"id\",\"pantone_value\"]},{\"type\":\"object\",\"properties\":{\"color\":{\"type\":\"string\"},\"year\":{\"type\":\"integer\"},\"name\":{\"type\":\"string\"},\"id\":{\"type\":\"integer\"},\"pantone_value\":{\"type\":\"string\"}},\"required\":[\"color\",\"year\",\"name\",\"id\",\"pantone_value\"]},{\"type\":\"object\",\"properties\":{\"color\":{\"type\":\"string\"},\"year\":{\"type\":\"integer\"},\"name\":{\"type\":\"string\"},\"id\":{\"type\":\"integer\"},\"pantone_value\":{\"type\":\"string\"}},\"required\":[\"color\",\"year\",\"name\",\"id\",\"pantone_value\"]},{\"type\":\"object\",\"properties\":{\"color\":{\"type\":\"string\"},\"year\":{\"type\":\"integer\"},\"name\":{\"type\":\"string\"},\"id\":{\"type\":\"integer\"},\"pantone_value\":{\"type\":\"string\"}},\"required\":[\"color\",\"year\",\"name\",\"id\",\"pantone_value\"]},{\"type\":\"object\",\"properties\":{\"color\":{\"type\":\"string\"},\"year\":{\"type\":\"integer\"},\"name\":{\"type\":\"string\"},\"id\":{\"type\":\"integer\"},\"pantone_value\":{\"type\":\"string\"}},\"required\":[\"color\",\"year\",\"name\",\"id\",\"pantone_value\"]},{\"type\":\"object\",\"properties\":{\"color\":{\"type\":\"string\"},\"year\":{\"type\":\"integer\"},\"name\":{\"type\":\"string\"},\"id\":{\"type\":\"integer\"},\"pantone_value\":{\"type\":\"string\"}},\"required\":[\"color\",\"year\",\"name\",\"id\",\"pantone_value\"]}]},\"page\":{\"type\":\"integer\"},\"total_pages\":{\"type\":\"integer\"},\"support\":{\"type\":\"object\",\"properties\":{\"text\":{\"type\":\"string\"},\"url\":{\"type\":\"string\"}},\"required\":[\"text\",\"url\"]}},\"required\":[\"per_page\",\"total\",\"data\",\"page\",\"total_pages\",\"support\"]}\n\n\nclasspath:examples\/users\/JsonSchema.feature:218","executorName":"pool-1-thread-5","name":"\"JSON Schema\"","startTime":1627642585935,"refId":"[1:3]","endTime":1627642587046,"exampleIndex":-1}],"callDepth":0,"name":"Json Schema","description":"","resultDate":"2021-07-30 04:26:30 pm","durationMillis":980.171763,"passedCount":0}